module gitlab.com/MatyushkinM/ci-golang-demo-matyushkin

go 1.20

require (
	golang.org/x/crypto v0.0.0-20190701094942-4def268fd1a4 // indirect
	golang.org/x/lint v0.0.0-20190409202823-959b441ac422 // indirect
	golang.org/x/net v0.0.0-20190813141303-74dc4d7220e7 // indirect
	golang.org/x/sys v0.0.0-20190813064441-fde4db37ae7a // indirect
	golang.org/x/text v0.3.2 // indirect
	golang.org/x/tools v0.0.0-20190816200558-6889da9d5479 // indirect
)
